* --- CodePainter Revolution Global Project Variables Vers. 4.1
Icprmem.GlobalProjectVars
ana=True
ascii=False
bat=False
bigapp=True
cli5dir='c:\clipper5\
clipdir='c:\clipper\
dbasedir='c:\dbase\
dd='X:\PAL
defmen='
eve=False
fil=False
filmen='
fowdir='
foxdir='c:\fox\
fxpdir='f:\language\fpd26\
genbatch=True
genmask=True
genmasterdetail=True
helpdbf='cp__help
helpidx='cp__help
hlp=False
lan=False
language='S
linker='T
log=False
m_d=False
macrotec='db_tec
macrouser='db_user
macrtftec='rtf_tec
macrtfusr='rtfuser
mainedit='Q.EXE
make=True
mas=False
mb='*.prg
men=False
menudbf='cp__menu
mov=False
multiut=False
nameexe='prog
oldbig=False
oldmulti=False
optimize=False
paintdir='f:\painter2\
planfile='BANC
pro=False
project=Icpproject.CPProject
file={
banc
Icpproject.CPFileProject
comment='Modulo conti correnti
timestamp='20150326103524
type='design
I
calcfest
Icpproject.CPFileProject
comment='Calcola data valuta
function=True
timestamp='20150326103524
type='batch
I
chknumcr
Icpproject.CPFileProject
comment='Check esistenza conto corrente
function=True
timestamp='20150326103524
type='batch
I
gsba_bck
Icpproject.CPFileProject
comment='Controlli finali sulle causali movimenti
timestamp='20150326103524
type='batch
I
gsba_bda
Icpproject.CPFileProject
comment='Ricalcola data valuta
timestamp='20150326103524
type='batch
I
gsba_bes
Icpproject.CPFileProject
comment='Elabora schede conto corrente
timestamp='20150326103524
type='batch
I
gsba_bmk
Icpproject.CPFileProject
comment='Controlli finali sui movimenti di C\C
timestamp='20150326103524
type='batch
I
gsba_brs
Icpproject.CPFileProject
comment='Ricostruzione saldi conti correnti
timestamp='20150326103524
type='batch
I
gsba_bss
Icpproject.CPFileProject
comment='Elabora scalare
timestamp='20150326103524
type='batch
I
gsba_krs
Icpproject.CPFileProject
comment='Ricostruzione saldi
timestamp='20150326103524
type='mask
I
gsba_kvc
Icpproject.CPFileProject
comment='Visualizza schede conto corrente
timestamp='20150326103524
type='mask
I
gsba_mct
Icpproject.CPFileProject
comment='Causali conti correnti
timestamp='20150326103524
type='made
I
gsba_mfe
Icpproject.CPFileProject
comment='Calendario festivitÓ
timestamp='20150326103524
type='made
I
gsba_mmc
Icpproject.CPFileProject
comment='Movimenti di conto corrente
timestamp='20150326103524
type='made
I
gsba_sbm
Icpproject.CPFileProject
comment='Stampa brogliaccio movimenti
timestamp='20150326103524
type='mask
I
gsba_scc
Icpproject.CPFileProject
comment='Conteggio competenze
timestamp='20150326103524
type='mask
I
gsba_scm
Icpproject.CPFileProject
comment='Stampa causali conti correnti
timestamp='20150326103524
type='mask
I
gsba_sec
Icpproject.CPFileProject
comment='Stampa estratto conto
timestamp='20150326103524
type='mask
I
gsba_ses
Icpproject.CPFileProject
comment='Stampa scalare
timestamp='20150326103524
type='mask
I
gsba_sfe
Icpproject.CPFileProject
comment='Stampa festivitÓ
timestamp='20150326103524
type='mask
I
gsba_ssc
Icpproject.CPFileProject
comment='Stampa schede conto corrente
timestamp='20150326103524
type='mask
I
}
font=Icpproject.CPFont
font='Arial
font_points=9
I
objects=[
'cp_zoombox
'cp_runprogram
'cp_calclbl
]
I
protojust='0
prt=False
rtf=True
saf=True
self='*.def
sta=False
tab=False
tabledbf='tabelle
tableidx='tabelle
tec=False
tec_doc='standard
tmp=False
tmpana='ordi
tmpc=False
tmpf=False
tmpm=False
tooledit='C:\UT\Q.EXE
tpldir='f:\painter2\vfcstpl\
tpldirf='..\vfcstpl\
usr=True
usr_doc='manual
windir='
zom=False
I
*--*
*----*
