#include "cp_app_lang.inc"
Error in line 20: File does not exist.
#include "cp_app_lang.inc"
Error in line 117: File does not exist.
#include "cp_app_lang.inc"
Error in line 223: File does not exist.
#include "cp_app_lang.inc"
Error in line 293: File does not exist.
#include "cp_app_lang.inc"
Error in line 383: File does not exist.
#include "cp_app_lang.inc"
Error in line 460: File does not exist.
#include "cp_app_lang.inc"
Error in line 596: File does not exist.
#include "cp_app_lang.inc"
Error in line 671: File does not exist.
#include "cp_app_lang.inc"
Error in line 738: File does not exist.
#include "cp_app_lang.inc"
Error in line 849: File does not exist.
#include "cp_app_lang.inc"
Error in line 940: File does not exist.
#include "cp_app_lang.inc"
Error in line 1043: File does not exist.
#include "cp_app_lang.inc"
Error in line 1125: File does not exist.
#include "cp_app_lang.inc"
Error in line 1247: File does not exist.
#include "cp_app_lang.inc"
Error in line 1448: File does not exist.
#include "cp_app_lang.inc"
Error in line 1838: File does not exist.
#include "cp_app_lang.inc"
Error in line 1934: File does not exist.
#include "cp_app_lang.inc"
Error in line 2026: File does not exist.
#include "cp_app_lang.inc"
Error in line 2181: File does not exist.
#include "cp_app_lang.inc"
Error in line 2251: File does not exist.
#include "cp_app_lang.inc"
Error in line 2323: File does not exist.
#include "cp_app_lang.inc"
Error in line 2488: File does not exist.
#include "cp_app_lang.inc"
Error in line 3249: File does not exist.
#include "cp_app_lang.inc"
Error in line 3323: File does not exist.
#include "cp_app_lang.inc"
Error in line 3535: File does not exist.
#include "cp_app_lang.inc"
Error in line 3646: File does not exist.
#include "cp_app_lang.inc"
Error in line 3760: File does not exist.
#include "cp_app_lang.inc"
Error in line 3850: File does not exist.
#include "cp_app_lang.inc"
Error in line 3973: File does not exist.
#include "cp_app_lang.inc"
Error in line 4061: File does not exist.
#include "cp_app_lang.inc"
Error in line 4185: File does not exist.
#include "cp_app_lang.inc"
Error in line 4488: File does not exist.
#include "cp_app_lang.inc"
Error in line 4779: File does not exist.
#include "cp_app_lang.inc"
Error in line 4892: File does not exist.
#include "cp_app_lang.inc"
Error in line 4972: File does not exist.
#include "cp_app_lang.inc"
Error in line 5053: File does not exist.
#include "cp_app_lang.inc"
Error in line 5152: File does not exist.
#include "cp_app_lang.inc"
Error in line 5289: File does not exist.
#include "cp_app_lang.inc"
Error in line 5378: File does not exist.
#include "cp_app_lang.inc"
Error in line 5508: File does not exist.
#include "cp_app_lang.inc"
Error in line 5670: File does not exist.
#include "cp_app_lang.inc"
Error in line 5833: File does not exist.
#include "cp_app_lang.inc"
Error in line 6179: File does not exist.
#include "cp_app_lang.inc"
Error in line 6408: File does not exist.
#include "cp_app_lang.inc"
Error in line 6492: File does not exist.
#include "cp_app_lang.inc"
Error in line 6626: File does not exist.
#include "cp_app_lang.inc"
Error in line 6973: File does not exist.
#include "cp_app_lang.inc"
Error in line 7050: File does not exist.
#include "cp_app_lang.inc"
Error in line 7151: File does not exist.
#include "cp_app_lang.inc"
Error in line 7221: File does not exist.
#include "cp_app_lang.inc"
Error in line 7295: File does not exist.
#include "cp_app_lang.inc"
Error in line 7366: File does not exist.
#include "cp_app_lang.inc"
Error in line 7570: File does not exist.
#include "cp_app_lang.inc"
Error in line 7781: File does not exist.
#include "cp_app_lang.inc"
Error in line 7863: File does not exist.
#include "cp_app_lang.inc"
Error in line 8023: File does not exist.
#include "cp_app_lang.inc"
Error in line 8201: File does not exist.
#include "cp_app_lang.inc"
Error in line 8287: File does not exist.
#include "cp_app_lang.inc"
Error in line 8450: File does not exist.
#include "cp_app_lang.inc"
Error in line 8545: File does not exist.
#include "cp_app_lang.inc"
Error in line 8613: File does not exist.
#include "cp_app_lang.inc"
Error in line 8715: File does not exist.
#include "cp_app_lang.inc"
Error in line 8873: File does not exist.
#include "cp_app_lang.inc"
Error in line 9010: File does not exist.
#include "cp_app_lang.inc"
Error in line 9141: File does not exist.
#include "cp_app_lang.inc"
Error in line 9268: File does not exist.
#include "cp_app_lang.inc"
Error in line 9447: File does not exist.
#include "cp_app_lang.inc"
Error in line 9540: File does not exist.
#include "cp_app_lang.inc"
Error in line 9631: File does not exist.
#include "cp_app_lang.inc"
Error in line 10125: File does not exist.
#include "cp_app_lang.inc"
Error in line 10355: File does not exist.
#include "cp_app_lang.inc"
Error in line 10444: File does not exist.
#include "cp_app_lang.inc"
Error in line 10603: File does not exist.
#include "cp_app_lang.inc"
Error in line 10727: File does not exist.
#include "cp_app_lang.inc"
Error in line 10819: File does not exist.
#include "cp_app_lang.inc"
Error in line 10896: File does not exist.
#include "cp_app_lang.inc"
Error in line 10992: File does not exist.
#include "cp_app_lang.inc"
Error in line 11082: File does not exist.
#include "cp_app_lang.inc"
Error in line 11177: File does not exist.
#include "cp_app_lang.inc"
Error in line 11283: File does not exist.
#include "cp_app_lang.inc"
Error in line 11374: File does not exist.
#include "cp_app_lang.inc"
Error in line 11464: File does not exist.
#include "cp_app_lang.inc"
Error in line 11914: File does not exist.
#include "cp_app_lang.inc"
Error in line 12171: File does not exist.
#include "cp_app_lang.inc"
Error in line 12257: File does not exist.
#include "cp_app_lang.inc"
Error in line 12438: File does not exist.
#include "cp_app_lang.inc"
Error in line 12627: File does not exist.
#include "cp_app_lang.inc"
Error in line 13616: File does not exist.
#include "cp_app_lang.inc"
Error in line 13701: File does not exist.
#include "cp_app_lang.inc"
Error in line 13872: File does not exist.
#include "cp_app_lang.inc"
Error in line 14060: File does not exist.
#include "cp_app_lang.inc"
Error in line 14164: File does not exist.
#include "cp_app_lang.inc"
Error in line 14246: File does not exist.
#include "cp_app_lang.inc"
Error in line 14411: File does not exist.
#include "cp_app_lang.inc"
Error in line 14484: File does not exist.
#include "cp_app_lang.inc"
Error in line 14700: File does not exist.
#include "cp_app_lang.inc"
Error in line 14794: File does not exist.
#include "cp_app_lang.inc"
Error in line 14888: File does not exist.
#include "cp_app_lang.inc"
Error in line 15129: File does not exist.
#include "cp_app_lang.inc"
Error in line 15220: File does not exist.
#include "cp_app_lang.inc"
Error in line 15358: File does not exist.
#include "cp_app_lang.inc"
Error in line 15496: File does not exist.
#include "cp_app_lang.inc"
Error in line 15592: File does not exist.
#include "cp_app_lang.inc"
Error in line 15706: File does not exist.
#include "cp_app_lang.inc"
Error in line 15819: File does not exist.
#include "cp_app_lang.inc"
Error in line 15936: File does not exist.
#include "cp_app_lang.inc"
Error in line 16973: File does not exist.
#include "cp_app_lang.inc"
Error in line 17659: File does not exist.
#include "cp_app_lang.inc"
Error in line 18448: File does not exist.
#include "cp_app_lang.inc"
Error in line 18612: File does not exist.
#include "cp_app_lang.inc"
Error in line 18752: File does not exist.
#include "cp_app_lang.inc"
Error in line 18930: File does not exist.
#include "cp_app_lang.inc"
Error in line 19057: File does not exist.
#include "cp_app_lang.inc"
Error in line 19216: File does not exist.
#include "cp_app_lang.inc"
Error in line 19340: File does not exist.
#include "cp_app_lang.inc"
Error in line 19443: File does not exist.
#include "cp_app_lang.inc"
Error in line 19552: File does not exist.
#include "cp_app_lang.inc"
Error in line 19660: File does not exist.
#include "cp_app_lang.inc"
Error in line 19997: File does not exist.
#include "cp_app_lang.inc"
Error in line 20165: File does not exist.
#include "cp_app_lang.inc"
Error in line 20272: File does not exist.
#include "cp_app_lang.inc"
Error in line 20407: File does not exist.
#include "cp_app_lang.inc"
Error in line 20526: File does not exist.
#include "cp_app_lang.inc"
Error in line 20632: File does not exist.
#include "cp_app_lang.inc"
Error in line 20864: File does not exist.
#include "cp_app_lang.inc"
Error in line 20979: File does not exist.
#include "cp_app_lang.inc"
Error in line 21072: File does not exist.
#include "cp_app_lang.inc"
Error in line 21398: File does not exist.
#include "cp_app_lang.inc"
Error in line 22174: File does not exist.
#include "cp_app_lang.inc"
Error in line 22504: File does not exist.
#include "cp_app_lang.inc"
Error in line 22840: File does not exist.
#include "cp_app_lang.inc"
Error in line 22922: File does not exist.
#include "cp_app_lang.inc"
Error in line 23003: File does not exist.
#include "cp_app_lang.inc"
Error in line 23371: File does not exist.
#include "cp_app_lang.inc"
Error in line 23614: File does not exist.
#include "cp_app_lang.inc"
Error in line 23729: File does not exist.
#include "cp_app_lang.inc"
Error in line 23926: File does not exist.
#include "cp_app_lang.inc"
Error in line 24092: File does not exist.
#include "cp_app_lang.inc"
Error in line 24180: File does not exist.
#include "cp_app_lang.inc"
Error in line 24297: File does not exist.
#include "cp_app_lang.inc"
Error in line 24373: File does not exist.
#include "cp_app_lang.inc"
Error in line 24645: File does not exist.
#include "cp_app_lang.inc"
Error in line 25650: File does not exist.
#include "cp_app_lang.inc"
Error in line 25850: File does not exist.
#include "cp_app_lang.inc"
Error in line 25936: File does not exist.
#include "cp_app_lang.inc"
Error in line 26033: File does not exist.
#include "cp_app_lang.inc"
Error in line 26121: File does not exist.
#include "cp_app_lang.inc"
Error in line 26402: File does not exist.
#include "cp_app_lang.inc"
Error in line 26575: File does not exist.
#include "cp_app_lang.inc"
Error in line 26700: File does not exist.
#include "cp_app_lang.inc"
Error in line 26928: File does not exist.
#include "cp_app_lang.inc"
Error in line 27065: File does not exist.
#include "cp_app_lang.inc"
Error in line 27401: File does not exist.
#include "cp_app_lang.inc"
Error in line 27573: File does not exist.
#include "cp_app_lang.inc"
Error in line 27671: File does not exist.
#include "cp_app_lang.inc"
Error in line 27848: File does not exist.
#include "cp_app_lang.inc"
Error in line 28062: File does not exist.
#include "cp_app_lang.inc"
Error in line 28171: File does not exist.
#include "cp_app_lang.inc"
Error in line 28277: File does not exist.
#include "cp_app_lang.inc"
Error in line 28452: File does not exist.
#include "cp_app_lang.inc"
Error in line 28646: File does not exist.
#include "cp_app_lang.inc"
Error in line 28821: File does not exist.
#include "cp_app_lang.inc"
Error in line 28938: File does not exist.
#include "cp_app_lang.inc"
Error in line 29066: File does not exist.
#include "cp_app_lang.inc"
Error in line 29248: File does not exist.
#include "cp_app_lang.inc"
Error in line 29356: File does not exist.
#include "cp_app_lang.inc"
Error in line 29524: File does not exist.
#include "cp_app_lang.inc"
Error in line 29620: File does not exist.
#include "cp_app_lang.inc"
Error in line 29713: File does not exist.
#include "cp_app_lang.inc"
Error in line 30908: File does not exist.
#include "cp_app_lang.inc"
Error in line 30984: File does not exist.
#include "cp_app_lang.inc"
Error in line 31088: File does not exist.
#include "cp_app_lang.inc"
Error in line 31189: File does not exist.
#include "cp_app_lang.inc"
Error in line 31302: File does not exist.
#include "cp_app_lang.inc"
Error in line 31558: File does not exist.
#include "cp_app_lang.inc"
Error in line 31648: File does not exist.
#include "cp_app_lang.inc"
Error in line 31941: File does not exist.
#include "cp_app_lang.inc"
Error in line 32109: File does not exist.
#include "cp_app_lang.inc"
Error in line 32269: File does not exist.
#include "cp_app_lang.inc"
Error in line 32391: File does not exist.
#include "cp_app_lang.inc"
Error in line 32511: File does not exist.
#include "cp_app_lang.inc"
Error in line 32723: File does not exist.
#include "cp_app_lang.inc"
Error in line 32903: File does not exist.
#include "cp_app_lang.inc"
Error in line 33003: File does not exist.
#include "cp_app_lang.inc"
Error in line 33187: File does not exist.
#include "cp_app_lang.inc"
Error in line 33321: File does not exist.
#include "cp_app_lang.inc"
Error in line 33561: File does not exist.
#include "cp_app_lang.inc"
Error in line 33680: File does not exist.
#include "cp_app_lang.inc"
Error in line 33804: File does not exist.
#include "cp_app_lang.inc"
Error in line 34052: File does not exist.
#include "cp_app_lang.inc"
Error in line 34260: File does not exist.
#include "cp_app_lang.inc"
Error in line 34535: File does not exist.
#include "cp_app_lang.inc"
Error in line 34646: File does not exist.
#include "cp_app_lang.inc"
Error in line 35092: File does not exist.
#include "cp_app_lang.inc"
Error in line 35165: File does not exist.
#include "cp_app_lang.inc"
Error in line 35476: File does not exist.
#include "cp_app_lang.inc"
Error in line 35549: File does not exist.
#include "cp_app_lang.inc"
Error in line 35666: File does not exist.
#include "cp_app_lang.inc"
Error in line 35868: File does not exist.
#include "cp_app_lang.inc"
Error in line 35984: File does not exist.
#include "cp_app_lang.inc"
Error in line 36147: File does not exist.
#include "cp_app_lang.inc"
Error in line 36268: File does not exist.
#include "cp_app_lang.inc"
Error in line 36356: File does not exist.
#include "cp_app_lang.inc"
Error in line 36563: File does not exist.
#include "cp_app_lang.inc"
Error in line 37042: File does not exist.
#include "cp_app_lang.inc"
Error in line 37262: File does not exist.
#include "cp_app_lang.inc"
Error in line 37578: File does not exist.
#include "cp_app_lang.inc"
Error in line 37665: File does not exist.
#include "cp_app_lang.inc"
Error in line 38293: File does not exist.
#include "cp_app_lang.inc"
Error in line 38397: File does not exist.
#include "cp_app_lang.inc"
Error in line 38722: File does not exist.
#include "cp_app_lang.inc"
Error in line 38911: File does not exist.
#include "cp_app_lang.inc"
Error in line 38991: File does not exist.
#include "cp_app_lang.inc"
Error in line 39432: File does not exist.
#include "cp_app_lang.inc"
Error in line 39574: File does not exist.
#include "cp_app_lang.inc"
Error in line 39768: File does not exist.
#include "cp_app_lang.inc"
Error in line 39858: File does not exist.
#include "cp_app_lang.inc"
Error in line 39994: File does not exist.
#include "cp_app_lang.inc"
Error in line 40124: File does not exist.
#include "cp_app_lang.inc"
Error in line 40259: File does not exist.
#include "cp_app_lang.inc"
Error in line 40344: File does not exist.
#include "cp_app_lang.inc"
Error in line 40490: File does not exist.
#include "cp_app_lang.inc"
Error in line 40693: File does not exist.
#include "cp_app_lang.inc"
Error in line 40849: File does not exist.
#include "cp_app_lang.inc"
Error in line 40981: File does not exist.
#include "cp_app_lang.inc"
Error in line 41232: File does not exist.
#include "cp_app_lang.inc"
Error in line 41336: File does not exist.
#include "cp_app_lang.inc"
Error in line 41440: File does not exist.
#include "cp_app_lang.inc"
Error in line 41563: File does not exist.
#include "cp_app_lang.inc"
Error in line 41690: File does not exist.
#include "cp_app_lang.inc"
Error in line 42218: File does not exist.
#include "cp_app_lang.inc"
Error in line 42317: File does not exist.
#include "cp_app_lang.inc"
Error in line 42747: File does not exist.
#include "cp_app_lang.inc"
Error in line 43008: File does not exist.
#include "cp_app_lang.inc"
Error in line 43511: File does not exist.
#include "cp_app_lang.inc"
Error in line 43987: File does not exist.
#include "cp_app_lang.inc"
Error in line 44260: File does not exist.
#include "cp_app_lang.inc"
Error in line 44360: File does not exist.
#include "cp_app_lang.inc"
Error in line 44433: File does not exist.
#include "cp_app_lang.inc"
Error in line 44627: File does not exist.
#include "cp_app_lang.inc"
Error in line 44734: File does not exist.
#include "cp_app_lang.inc"
Error in line 44816: File does not exist.
#include "cp_app_lang.inc"
Error in line 45024: File does not exist.
#include "cp_app_lang.inc"
Error in line 45107: File does not exist.
#include "cp_app_lang.inc"
Error in line 45473: File does not exist.
#include "cp_app_lang.inc"
Error in line 45554: File does not exist.
#include "cp_app_lang.inc"
Error in line 45671: File does not exist.
#include "cp_app_lang.inc"
Error in line 47528: File does not exist.
#include "cp_app_lang.inc"
Error in line 47795: File does not exist.
#include "cp_app_lang.inc"
Error in line 48190: File does not exist.
#include "cp_app_lang.inc"
Error in line 48346: File does not exist.
#include "cp_app_lang.inc"
Error in line 48596: File does not exist.
#include "cp_app_lang.inc"
Error in line 48689: File does not exist.
#include "cp_app_lang.inc"
Error in line 48858: File does not exist.
#include "cp_app_lang.inc"
Error in line 49790: File does not exist.
#include "cp_app_lang.inc"
Error in line 49915: File does not exist.
#include "cp_app_lang.inc"
Error in line 50053: File does not exist.
#include "cp_app_lang.inc"
Error in line 50141: File does not exist.
#include "cp_app_lang.inc"
Error in line 50299: File does not exist.
#include "cp_app_lang.inc"
Error in line 50431: File does not exist.
#include "cp_app_lang.inc"
Error in line 50558: File does not exist.
#include "cp_app_lang.inc"
Error in line 50738: File does not exist.
#include "cp_app_lang.inc"
Error in line 50830: File does not exist.
#include "cp_app_lang.inc"
Error in line 50947: File does not exist.
#include "cp_app_lang.inc"
Error in line 51280: File does not exist.
#include "cp_app_lang.inc"
Error in line 51363: File does not exist.
#include "cp_app_lang.inc"
Error in line 51445: File does not exist.
#include "cp_app_lang.inc"
Error in line 56448: File does not exist.
#include "cp_app_lang.inc"
Error in line 56717: File does not exist.
#include "cp_app_lang.inc"
Error in line 56851: File does not exist.
#include "cp_app_lang.inc"
Error in line 57187: File does not exist.
#include "cp_app_lang.inc"
Error in line 57346: File does not exist.
#include "cp_app_lang.inc"
Error in line 57436: File does not exist.
#include "cp_app_lang.inc"
Error in line 57566: File does not exist.
#include "cp_app_lang.inc"
Error in line 57655: File does not exist.
#include "cp_app_lang.inc"
Error in line 57731: File does not exist.
#include "cp_app_lang.inc"
Error in line 57807: File does not exist.
#include "cp_app_lang.inc"
Error in line 57930: File does not exist.
#include "cp_app_lang.inc"
Error in line 58155: File does not exist.
#include "cp_app_lang.inc"
Error in line 58250: File does not exist.
#include "cp_app_lang.inc"
Error in line 59577: File does not exist.
#include "cp_app_lang.inc"
Error in line 59664: File does not exist.
#include "cp_app_lang.inc"
Error in line 59807: File does not exist.
#include "cp_app_lang.inc"
Error in line 59970: File does not exist.
#include "cp_app_lang.inc"
Error in line 60059: File does not exist.
#include "cp_app_lang.inc"
Error in line 60345: File does not exist.
#include "cp_app_lang.inc"
Error in line 60545: File does not exist.
#include "cp_app_lang.inc"
Error in line 60906: File does not exist.
#include "cp_app_lang.inc"
Error in line 61055: File does not exist.
#include "cp_app_lang.inc"
Error in line 61220: File does not exist.
#include "cp_app_lang.inc"
Error in line 61323: File does not exist.
#include "cp_app_lang.inc"
Error in line 61409: File does not exist.
#include "cp_app_lang.inc"
Error in line 62257: File does not exist.
#include "cp_app_lang.inc"
Error in line 62646: File does not exist.
#include "cp_app_lang.inc"
Error in line 62888: File does not exist.
#include "cp_app_lang.inc"
Error in line 63025: File does not exist.
#include "cp_app_lang.inc"
Error in line 63789: File does not exist.
#include "cp_app_lang.inc"
Error in line 63913: File does not exist.
#include "cp_app_lang.inc"
Error in line 64061: File does not exist.
#include "cp_app_lang.inc"
Error in line 64249: File does not exist.
#include "cp_app_lang.inc"
Error in line 64443: File does not exist.
#include "cp_app_lang.inc"
Error in line 64562: File does not exist.
#include "cp_app_lang.inc"
Error in line 65000: File does not exist.
#include "cp_app_lang.inc"
Error in line 65169: File does not exist.
#include "cp_app_lang.inc"
Error in line 65279: File does not exist.
#include "cp_app_lang.inc"
Error in line 65374: File does not exist.
#include "cp_app_lang.inc"
Error in line 65776: File does not exist.
#include "cp_app_lang.inc"
Error in line 66257: File does not exist.
#include "cp_app_lang.inc"
Error in line 66338: File does not exist.
#include "cp_app_lang.inc"
Error in line 68207: File does not exist.
#include "cp_app_lang.inc"
Error in line 68354: File does not exist.
#include "cp_app_lang.inc"
Error in line 68582: File does not exist.
#include "cp_app_lang.inc"
Error in line 68672: File does not exist.
#include "cp_app_lang.inc"
Error in line 68838: File does not exist.
#include "cp_app_lang.inc"
Error in line 68931: File does not exist.
#include "cp_app_lang.inc"
Error in line 69054: File does not exist.
#include "cp_app_lang.inc"
Error in line 69173: File does not exist.
#include "cp_app_lang.inc"
Error in line 69259: File does not exist.
#include "cp_app_lang.inc"
Error in line 69559: File does not exist.
#include "cp_app_lang.inc"
Error in line 69684: File does not exist.
#include "cp_app_lang.inc"
Error in line 69812: File does not exist.
#include "cp_app_lang.inc"
Error in line 69906: File does not exist.
#include "cp_app_lang.inc"
Error in line 70169: File does not exist.
#include "cp_app_lang.inc"
Error in line 70274: File does not exist.
#include "cp_app_lang.inc"
Error in line 70484: File does not exist.
#include "cp_app_lang.inc"
Error in line 70644: File does not exist.
#include "cp_app_lang.inc"
Error in line 70822: File does not exist.
#include "cp_app_lang.inc"
Error in line 71039: File does not exist.
#include "cp_app_lang.inc"
Error in line 71153: File does not exist.
#include "cp_app_lang.inc"
Error in line 71335: File does not exist.
#include "cp_app_lang.inc"
Error in line 71550: File does not exist.
#include "cp_app_lang.inc"
Error in line 71676: File does not exist.
#include "cp_app_lang.inc"
Error in line 71802: File does not exist.
#include "cp_app_lang.inc"
Error in line 71969: File does not exist.
#include "cp_app_lang.inc"
Error in line 72069: File does not exist.
#include "cp_app_lang.inc"
Error in line 72153: File does not exist.
#include "cp_app_lang.inc"
Error in line 72280: File does not exist.
#include "cp_app_lang.inc"
Error in line 72371: File does not exist.
#include "cp_app_lang.inc"
Error in line 72509: File does not exist.
#include "cp_app_lang.inc"
Error in line 72637: File does not exist.
#include "cp_app_lang.inc"
Error in line 72716: File does not exist.
#include "cp_app_lang.inc"
Error in line 72796: File does not exist.
#include "cp_app_lang.inc"
Error in line 72933: File does not exist.
#include "cp_app_lang.inc"
Error in line 73155: File does not exist.
#include "cp_app_lang.inc"
Error in line 73273: File does not exist.
#include "cp_app_lang.inc"
Error in line 73668: File does not exist.
#include "cp_app_lang.inc"
Error in line 73977: File does not exist.
#include "cp_app_lang.inc"
Error in line 74112: File does not exist.
#include "cp_app_lang.inc"
Error in line 74422: File does not exist.
#include "cp_app_lang.inc"
Error in line 74666: File does not exist.
#include "cp_app_lang.inc"
Error in line 74774: File does not exist.
#include "cp_app_lang.inc"
Error in line 74980: File does not exist.
#include "cp_app_lang.inc"
Error in line 75113: File does not exist.
#include "cp_app_lang.inc"
Error in line 75220: File does not exist.
#include "cp_app_lang.inc"
Error in line 75310: File does not exist.
#include "cp_app_lang.inc"
Error in line 75403: File does not exist.
#include "cp_app_lang.inc"
Error in line 75514: File does not exist.
#include "cp_app_lang.inc"
Error in line 75643: File does not exist.
#include "cp_app_lang.inc"
Error in line 75756: File does not exist.
#include "cp_app_lang.inc"
Error in line 75865: File does not exist.
#include "cp_app_lang.inc"
Error in line 76145: File does not exist.
#include "cp_app_lang.inc"
Error in line 76278: File does not exist.
#include "cp_app_lang.inc"
Error in line 76382: File does not exist.
#include "cp_app_lang.inc"
Error in line 76487: File does not exist.
#include "cp_app_lang.inc"
Error in line 76651: File does not exist.
#include "cp_app_lang.inc"
Error in line 76755: File does not exist.
#include "cp_app_lang.inc"
Error in line 76841: File does not exist.
#include "cp_app_lang.inc"
Error in line 76921: File does not exist.
#include "cp_app_lang.inc"
Error in line 77051: File does not exist.
#include "cp_app_lang.inc"
Error in line 77147: File does not exist.
#include "cp_app_lang.inc"
Error in line 77221: File does not exist.
#include "cp_app_lang.inc"
Error in line 77291: File does not exist.
#include "cp_app_lang.inc"
Error in line 77365: File does not exist.
#include "cp_app_lang.inc"
Error in line 77549: File does not exist.
#include "cp_app_lang.inc"
Error in line 77723: File does not exist.
#include "cp_app_lang.inc"
Error in line 77851: File does not exist.
#include "cp_app_lang.inc"
Error in line 77981: File does not exist.
#include "cp_app_lang.inc"
Error in line 78050: File does not exist.
#include "cp_app_lang.inc"
Error in line 78804: File does not exist.
#include "cp_app_lang.inc"
Error in line 79456: File does not exist.
#include "cp_app_lang.inc"
Error in line 80051: File does not exist.
#include "cp_app_lang.inc"
Error in line 80238: File does not exist.
#include "cp_app_lang.inc"
Error in line 80394: File does not exist.
#include "cp_app_lang.inc"
Error in line 80791: File does not exist.
#include "cp_app_lang.inc"
Error in line 80878: File does not exist.
#include "cp_app_lang.inc"
Error in line 80965: File does not exist.
#include "cp_app_lang.inc"
Error in line 81071: File does not exist.
#include "cp_app_lang.inc"
Error in line 81266: File does not exist.
#include "cp_app_lang.inc"
Error in line 81371: File does not exist.
#include "cp_app_lang.inc"
Error in line 81522: File does not exist.
#include "cp_app_lang.inc"
Error in line 81614: File does not exist.
#include "cp_app_lang.inc"
Error in line 81768: File does not exist.
#include "cp_app_lang.inc"
Error in line 81946: File does not exist.
#include "cp_app_lang.inc"
Error in line 82110: File does not exist.
#include "cp_app_lang.inc"
Error in line 82271: File does not exist.
#include "cp_app_lang.inc"
Error in line 82423: File does not exist.
#include "cp_app_lang.inc"
Error in line 82606: File does not exist.
#include "cp_app_lang.inc"
Error in line 82679: File does not exist.
#include "cp_app_lang.inc"
Error in line 82760: File does not exist.
#include "cp_app_lang.inc"
Error in line 83017: File does not exist.
#include "cp_app_lang.inc"
Error in line 83092: File does not exist.
#include "cp_app_lang.inc"
Error in line 83207: File does not exist.
#include "cp_app_lang.inc"
Error in line 83294: File does not exist.
#include "cp_app_lang.inc"
Error in line 83406: File does not exist.
