"ACQUISTATO","Acquistato",/  /,/  /,1,10,"ACQFORDOC",0
"ACQUISTATO","Acquistato",/  /,/  /,2,20,"ACQCATDOC",0
"ACQUISTATO","Acquistato",/  /,/  /,3,30,"ACQZONADOC",0
"ACQUISTATO","Acquistato",/  /,/  /,4,40,"ACQPAGDOC",0
"ACQUISTATO","Acquistato",/  /,/  /,5,50,"ACQART",0
"ACQUISTATO","Acquistato",/  /,/  /,6,60,"ACQGRU",0
"ANALITICA","Movimenti di Analitica",/  /,/  /,1,10,"COANBILNORIPCCRVO",0
"ANALITICA","Movimenti di Analitica",/  /,/  /,2,20,"COANBILORIGCCRVO",0
"ANALITICA","Movimenti di Analitica",/  /,/  /,3,30,"COANSCOSTNORIPCCR",0
"ANALITICA","Movimenti di Analitica",/  /,/  /,4,40,"COANSCOSTORIGCCR",0
"COM_ANACOS","Commessa Analisi dei Costi",/  /,/  /,1,10,"COM-CAUDOCARTSER",0
"COM_ANACOS","Commessa Analisi dei Costi",/  /,/  /,2,20,"COM-CODCOSTIPCOS",0
"COM_ANACOS","Commessa Analisi dei Costi",/  /,/  /,3,30,"COM-COSCLICOM",0
"COM_ANACOS","Commessa Analisi dei Costi",/  /,/  /,4,40,"COM-COSCOMATT",0
"COM_ANACOS","Commessa Analisi dei Costi",/  /,/  /,5,50,"COM-COSCONS",0
"COM_ANACOS","Commessa Analisi dei Costi",/  /,/  /,6,60,"COM-COSTOTALI",0
"COM_ANACOS","Commessa Analisi dei Costi",/  /,/  /,7,70,"COM-FORARTSER",0
"COM_ANACOS","Commessa Analisi dei Costi",/  /,/  /,8,80,"COM-IMPEGNIFIN",0
"COM_ANACOS","Commessa Analisi dei Costi",/  /,/  /,9,90,"COM-MARGCOM",0
"COM_ANACOS","Commessa Analisi dei Costi",/  /,/  /,10,100,"COM-PREVENTIVI",0
"COM_ANARIC","Commessa analisi dei Ricavi",/  /,/  /,1,10,"COM-RICAVICLI",0
"COM_ANARIC","Commessa analisi dei Ricavi",/  /,/  /,2,20,"COM-RICCOMMESSA",0
"IMPEGNATO","Impegnato",/  /,/  /,1,10,"IMPAGEGRUTRI",0
"IMPEGNATO","Impegnato",/  /,/  /,2,20,"IMPCATGRUMESE",0
"ORDINATO","Ordinato",/  /,/  /,1,10,"ORDCATGRUMESE",0
"ORDINATO","Ordinato",/  /,/  /,2,20,"ORDFAMARTMESE",0
"PRIMANOTA","Primanota",/  /,/  /,1,10,"PNTBILALL",0
"PRIMANOTA","Primanota",/  /,/  /,2,20,"PNTMOVALL",0
"PRIMANOTA","Primanota",/  /,/  /,3,30,"PNTREGALL",0
"PRIMANOTA","Primanota",/  /,/  /,4,40,"PNTVENCON",0
"PRIMANOTA","Primanota",/  /,/  /,5,50,"PNTACQCON",0
"VENAGE_STA","Venduto per Agente (Standard)",/  /,/  /,1,10,"VENAGE_STA",0
"VENDUTO","Venduto",/  /,/  /,1,10,"VENCLIDOC",0
"VENDUTO","Venduto",/  /,/  /,2,20,"VENCATDOC",0
"VENDUTO","Venduto",/  /,/  /,3,30,"VENZONADOC",0
"VENDUTO","Venduto",/  /,/  /,4,40,"VENAGEDOC",0
"VENDUTO","Venduto",/  /,/  /,5,50,"VENPAGDOC",0
"VENDUTO","Venduto",/  /,/  /,6,60,"VENCLISEDEDOC",0
