[GRUPPI]
CABL  CABLAGGIO DI RETE                  
DB    DATABASE SERVER                    
HARD  OFFERTA HARDWARE                   
LCAHR LICENZE AD HOC REVOLUTION          
MNAHR CANONE DI MANUTENZIONE             
PRAHR PERSONALIZZAZIONI MODULI STANDARD  
SOFT  SOFTWARE                           
SRIST SERVIZI ISTRUZIONE E INSTALLAZIONE 
[SOTTOGRUPPI]
HARD  CLIEN CLIENT DI RETE                     
HARD  SERV  SERVER DI RETE                     
SOFT  APP   Software Applicativo               
SOFT  MAN   Manualistica                       
SOFT  SIS   Software di Sistema                
[SEZIONI]
CABLAGGIO  Cablaggio di Rete                   A CABL                                                                                                                                                                                                                                                                                                      ..\OFFE\EXE\QUERY\ARTICOLI_NO_SCONTI.DOT                                                                                                                                                                                                                      
CONDGEN    Condizioni Generali Offerta n.1     W             CONDIZIONI_GENERALI                                                                                                                                                                                                                                                                           ..\OFFE\EXE\QUERY\CONDIZIONI_GENERALI_1.DOT                                                                                                                                                                                                                   
CONGEN2    Condizioni Generali Offerta n.2     W                                                                                                                                                                                                                                                                                                           ..\OFFE\EXE\QUERY\CONDIZIONI_GENERALI_2.DOT                                                                                                                                                                                                                   
DATI FISSI Sezione Principale Campi Fissi      T                                                                                                                                                                                                                                                                                                                                                                                                                                                                                                                                                                         
DBSERVER   Licenze DataBase Server             A DB                                                                                                                                                                                                                                                                                                        ..\OFFE\EXE\QUERY\ARTICOLI_NO_SCONTI.DOT                                                                                                                                                                                                                      
DESCRFINE  Descrizione Finale Offerta          D             DESCRIZIONE_FINALE                                                                                                                                                                                                                                                                                                                                                                                                                                                                                                                                          
HARD_IMM   Componenti Hardware con Immagini    A HARD                                                                                                                                                                                                                                                                                                      ..\OFFE\EXE\QUERY\ARTICOLI_IMMAGINE.DOT                                                                                                                                                                                                                       
HARDWARE   Componenti Hardware                 A HARD                                                                                                                                                                                                                                                                                                      ..\OFFE\EXE\QUERY\ARTICOLI.DOT                                                                                                                                                                                                                                
INTGRHARD  Intestazione Gruppo Hardware        G HARD                                                                                                                                                                                                                                                                       R_                             ..\OFFE\EXE\QUERY\INTESTAZIONE_GRUPPO.DOT                                                                                                                                                                                                                     
INTIMG     Introduzione modelli ripetuti       G                                                                                                                                                                                                                                                                            R_                             ..\OFFE\EXE\QUERY\MODELLO_DETT_INT_GRUPPO.DOT                                                                                                                                                                                                                 
INTMODHARD Introduzione offerta hardware       G HARD                                                                                                                                                                                                                                                                       R_                             ..\OFFE\EXE\QUERY\MODELLO_DETT_INT_GRUPPO.DOT                                                                                                                                                                                                                 
INTRO      Introduzione descrittiva Offerta    D             INTRODUZIONE                                                                                                                                                                                                                                                                                                                                                                                                                                                                                                                                                
INTROHR    Introduzione descrittiva Hardware   D             INTRODUZIONE                                                                                                                                                                                                                                                                                                                                                                                                                                                                                                                                                
ISTRUZAHR  Servizi Istruzione, Installazione   A SRIST                                                                                                                                                                                                                                                                                                     ..\OFFE\EXE\QUERY\ARTICOLI_NO_SCONTI.DOT                                                                                                                                                                                                                      
LICENZEAHR Licenze Ad Hoc Revolution           A LCAHR                                                                                                                                                                                                                                                                                                     ..\OFFE\EXE\QUERY\ARTICOLI.DOT                                                                                                                                                                                                                                
MANUTAHR   Canone Manutenzione AHR             A MNAHR                                                                                                                                                                                                                                                                                                     ..\OFFE\EXE\QUERY\SERVIZI_VALORE.DOT                                                                                                                                                                                                                          
MODELLO    Modello di Offerta                  W                                                                                                                                                                                                                                                                                                           ..\OFFE\EXE\QUERY\MODELLO_STANDARD.DOT                                                                                                                                                                                                                        
MODHARD    Offerta con modello ripetuto        A HARD        MODELLO_DETTAGLIO                                                                                                                                                                                                                                                                             ..\OFFE\EXE\QUERY\MODELLO_DETTAGLIO_ARTICOLI2.DOT                                                                                                                                                                                                             
MODIMG     Dettaglio ripetuto con immagini     A             MODELLO_DETTAGLIO                                                                                                                                                                                                                                                                             ..\OFFE\EXE\QUERY\MODELLO_DETTAGLIO_ARTICOLI.DOT                                                                                                                                                                                                              
PERSONAHR  Personalizzazioni Moduli Standard   A PRAHR                                                                                                                                                                                                                                                                                                     ..\OFFE\EXE\QUERY\ARTICOLI_NO_SCONTI.DOT                                                                                                                                                                                                                      
RIEPHARD   Riepilogo Hardware                  S HARD                                                                                                                                                                                                                                                                                                      ..\OFFE\EXE\QUERY\RIPILOGO_SOTTOGRUPPI.DOT                                                                                                                                                                                                                    
RIEPILOGO  Totali Riepilogativi Offerta        G                                                                                                                                                                                                                                                                                                           ..\OFFE\EXE\QUERY\RIPILOGO_GRUPPI.DOT                                                                                                                                                                                                                         
TOTPERSON  Totali Personalizzazioni            G PRAHR                                                                                                                                                                                                                                                                      R_                                                                                                                                                                                                                                                                                           
TOTSERV    Totali Server (Hardware)            S HARD  SERV                                                                                                                                                                                                                                                                 R_                                                                                                                                                                                                                                                                                           
SOTTCLIE   Sottogruppo Client (Hardware)       A HARD  CLIEN                                                                                                                                                                                                                                                                                               ..\OFFE\EXE\QUERY\ARTICOLI_SLIM.DOT                                                                                                                                                                                                                           
SOTTSERV   Sottogruppo Server (Hardware)       A HARD  SERV                                                                                                                                                                                                                                                                                                ..\OFFE\EXE\QUERY\ARTICOLI_SLIM.DOT                                                                                                                                                                                                                           
TOTCABLAGG Totali Cablaggio di Rete            G CABL                                                                                                                                                                                                                                                                       R_                                                                                                                                                                                                                                                                                           
TOTCLI     Totali Client (Hardware)            S HARD  CLIEN                                                                                                                                                                                                                                                                R_                                                                                                                                                                                                                                                                                           
TOTDB      Totali Database Server              G DB                                                                                                                                                                                                                                                                         R_                                                                                                                                                                                                                                                                                           
TOTHARD    Totali Componenti Hardware          G HARD                                                                                                                                                                                                                                                                       R_                                                                                                                                                                                                                                                                                           
TOTIMG     Totali per modelli ripetuti         G                                                                                                                                                                                                                                                                            R_                             ..\OFFE\EXE\QUERY\MODELLO_DETT_TOT_GRUPPO.DOT                                                                                                                                                                                                                 
TOTISTRUZ  Totali Istruzione e Installazione   G SRIST                                                                                                                                                                                                                                                                      R_                                                                                                                                                                                                                                                                                           
TOTLICAHR  Totali Licenze AHR                  G LCAHR                                                                                                                                                                                                                                                                      R_                                                                                                                                                                                                                                                                                           
TOTMANAHR  Totali Manutenzioni AHR             G MNAHR                                                                                                                                                                                                                                                                      R_                                                                                                                                                                                                                                                                                           
TOTMODHARD Totali offerta hardware             G HARD                                                                                                                                                                                                                                                                       R_                             ..\OFFE\EXE\QUERY\MODELLO_DETT_TOT_GRUPPO.DOT                                                                                                                                                                                                                 
[MODELLI]
MODHR Modello Offerta Hardware            H  0 DF 20  0  N                   0,00     0,00     0,0000                 0,0000                 200,0000               W                                                                                                                                                                                                                                                                10  N "Offerta Hardware_",OFCODNOM,OFNUMDOC,"-",OFSERDOC                                                                                                                                                                                                             W N  
MODIM Modello Offerta con Immagini        IM 0 DF 0   0  N                   0,00     0,00     0,0000                 0,0000                 0,0000                 W                                                                                                                                                                                                                                                                    N "Offerta Hardware_",OFCODNOM,OFNUMDOC,"-",OFSERDOC                                                                                                                                                                                                             W N  
MODRP Modello offerta ripetuto            H  0 DF 0   0  N                   0,00     0,00     0,0000                 0,0000                 0,0000                 W ..\OFFE\EXE\QUERY\MODELLO_STANDARD.DOT                                                                                                                                                                                                                             N                                                                                                                                                                                                                                                                W N  
MODST Modello Standard di Offerta Globale    4 DF 60  0  N                   0,00     0,00     0,0000                 0,0000                 500,0000               W ..\OFFE\EXE\QUERY\MODELLO_STANDARD.DOT                                                                                                                                                                                                                         20  N                                                                                                                                                                                                                                                                W N  
[SEZIONIMODELLI]
MODHR 1   10   MODELLO   
MODHR 2   20   INTROHR   
MODHR 3   30   INTGRHARD 
MODHR 4   40   SOTTSERV  
MODHR 5   50   TOTSERV   
MODHR 6   60   SOTTCLIE  
MODHR 7   70   TOTCLI    
MODHR 8   80   RIEPHARD  
MODHR 9   90   TOTHARD   
MODHR 10  100  CABLAGGIO 
MODHR 11  110  TOTCABLAGG
MODHR 12  120  ISTRUZAHR 
MODHR 13  130  TOTISTRUZ 
MODHR 14  140  RIEPILOGO 
MODHR 15  145  DESCRFINE 
MODHR 16  150  CONGEN2   
MODHR 17  160  DATI FISSI
MODIM 1   10   MODELLO   
MODIM 2   20   HARD_IMM  
MODIM 3   30   TOTHARD   
MODIM 4   40   DATI FISSI
MODRP 1   10   INTROHR   
MODRP 2   20   INTMODHARD
MODRP 3   30   MODHARD   
MODRP 4   40   TOTMODHARD
MODRP 5   50   RIEPILOGO 
MODRP 6   60   DESCRFINE 
MODRP 7   70   CONGEN2   
MODRP 8   80   DATI FISSI
MODST 1   10   INTRO     
MODST 2   20   LICENZEAHR
MODST 3   30   TOTLICAHR 
MODST 6   40   MANUTAHR  
MODST 7   50   TOTMANAHR 
MODST 8   60   PERSONAHR 
MODST 9   70   TOTPERSON 
MODST 10  80   ISTRUZAHR 
MODST 11  90   TOTISTRUZ 
MODST 12  100  DBSERVER  
MODST 13  110  TOTDB     
MODST 14  120  HARDWARE  
MODST 15  130  TOTHARD   
MODST 16  140  CABLAGGIO 
MODST 17  150  TOTCABLAGG
MODST 18  160  RIEPILOGO 
MODST 19  170  DESCRFINE 
MODST 20  180  CONDGEN   
MODST 21  190  DATI FISSI
