"0000000001","Documenti",".doc.docx.odt.rtf.sxw.txt"," "
"0000000002","Pdf",".pdf"," "
"0000000003","Fogli di calcolo",".xls.xlsx.ods.csv.sxc"," "
"0000000004","Immagini",".bmp.jpg.jpeg.gif.tiff.png"," "
"0000000005","Messaggi",".eml.msg"," "
