* --- CodePainter Revolution Global Project Variables Vers. 4.1
Icprmem.GlobalProjectVars
ana=True
ascii=False
bat=False
bigapp=True
cli5dir='c:\clipper5\
clipdir='c:\clipper\
dbasedir='c:\dbase\
dd='X:\PAL
defmen='
eve=False
fil=False
filmen='
fowdir='
foxdir='c:\fox\
fxpdir='f:\language\fpd26\
genbatch=True
gendetail=True
genmask=True
genmaster=True
genmasterdetail=True
helpdbf='cp__help
helpidx='cp__help
hlp=False
lan=False
language='S
linker='T
log=False
m_d=False
macrotec='db_tec
macrouser='db_user
macrtftec='rtf_tec
macrtfusr='rtfuser
mainedit='Q.EXE
make=True
mas=False
mb='*.prg
men=False
menudbf='cp__menu
mov=False
multiut=False
nameexe='prog
oldbig=False
oldmulti=False
optimize=False
paintdir='f:\painter2\
planfile='irdr
pro=False
project=Icpproject.CPProject
file={
gsir1bqa
Icpproject.CPFileProject
comment='Cancella autorizzazioni
timestamp='20150326105200
type='batch
I
gsir1bzg
Icpproject.CPFileProject
comment='Zoom gestioni da menu
timestamp='20150326105200
type='batch
I
gsir1kzg
Icpproject.CPFileProject
comment='Elenco gestioni/tabelle
timestamp='20150326105200
type='mask
I
gsir_amg
Icpproject.CPFileProject
comment='Menu contestuale per query
timestamp='20150326105200
type='master
I
gsir_bca
Icpproject.CPFileProject
comment='Caricamento report infobusiness esterni
timestamp='20150326105200
type='batch
I
gsir_bdq
Icpproject.CPFileProject
comment='Duplica query
timestamp='20150326105200
type='batch
I
gsir_bdv
Icpproject.CPFileProject
comment='Check form gsir_mdv - riservato a
timestamp='20150326105200
type='batch
I
gsir_bfr
Icpproject.CPFileProject
comment='Zoom filtro
timestamp='20150326105200
type='batch
I
gsir_bgd
Icpproject.CPFileProject
comment='Generazione dati InfoPublisher
timestamp='20150326105200
type='batch
I
gsir_bic
Icpproject.CPFileProject
comment='Crea cursore per tasto dx
timestamp='20150326105200
type='batch
I
gsir_bio
Icpproject.CPFileProject
comment='Installa ocx
timestamp='20150326105200
type='batch
I
gsir_bir
Icpproject.CPFileProject
comment='Run InfoReader
timestamp='20150326105200
type='batch
I
gsir_bmq
Icpproject.CPFileProject
comment='Modifica query
timestamp='20150326105200
type='batch
I
gsir_bqa
Icpproject.CPFileProject
comment='Gestione autorizzazioni
timestamp='20150326105200
type='batch
I
gsir_brp
Icpproject.CPFileProject
comment='Corporate da gestione documentale
timestamp='20150326105200
type='batch
I
gsir_bsc
Icpproject.CPFileProject
comment='Carica InfoPublisher
timestamp='20150326105200
type='batch
I
gsir_bsr
Icpproject.CPFileProject
comment='Selezione query InfoReader
timestamp='20150326105200
type='batch
I
gsir_btv
Icpproject.CPFileProject
comment='Tabella vista query InfoPublisher
timestamp='20150326105200
type='batch
I
gsir_bzg
Icpproject.CPFileProject
comment='Caricamento rapido parametri
timestamp='20150326105200
type='batch
I
gsir_kad
Icpproject.CPFileProject
comment='Configurazione stringa ADO
timestamp='20150326105200
type='mask
I
gsir_kca
Icpproject.CPFileProject
comment='Caricamento report infobusiness esterni
timestamp='20150326105200
type='mask
I
gsir_kcr
Icpproject.CPFileProject
comment='Cifratura stringa di connessione
timestamp='20150326105200
type='mask
I
gsir_kfr
Icpproject.CPFileProject
comment='Filtri report InfoPublisher
timestamp='20150326105200
type='mask
I
gsir_kgd
Icpproject.CPFileProject
comment='Pubblicazione dati InfoPublisher
timestamp='20150326105200
type='mask
I
gsir_kir
Icpproject.CPFileProject
comment='Info reader
timestamp='20150326105200
type='mask
I
gsir_kmq
Icpproject.CPFileProject
comment='Modifica query
timestamp='20150326105200
type='mask
I
gsir_kpr
Icpproject.CPFileProject
comment='Parametri query
timestamp='20150326105200
type='mask
I
gsir_kqa
Icpproject.CPFileProject
comment='Autorizzazioni query InfoPublisher
timestamp='20150326105200
type='mask
I
gsir_ksr
Icpproject.CPFileProject
comment='Selezione query InfoReader
timestamp='20150326105200
type='mask
I
gsir_kzg
Icpproject.CPFileProject
comment='Caricamento parametri da gestione
timestamp='20150326105200
type='mask
I
gsir_maq
Icpproject.CPFileProject
comment='Anagrafica query
timestamp='20150326105200
type='made
I
gsir_mdv
Icpproject.CPFileProject
comment='Corporate Portal - riservato a
timestamp='20150326105200
type='detail
I
gsir_mfr
Icpproject.CPFileProject
comment='Filtri report InfoPublisher
timestamp='20150326105200
type='detail
I
gsir_mgi
Icpproject.CPFileProject
comment='Gestioni query
timestamp='20150326105200
type='detail
I
gsir_mgq
Icpproject.CPFileProject
comment='Gruppi di query
timestamp='20150326105200
type='made
I
gsir_mpf
Icpproject.CPFileProject
comment='Parametri filtri
timestamp='20150326105200
type='detail
I
gsir_mpq
Icpproject.CPFileProject
comment='Definizione parametri
timestamp='20150326105200
type='detail
I
gsir_saq
Icpproject.CPFileProject
comment='Stampa query InfoPublisher
timestamp='20150326105200
type='mask
I
irdr
Icpproject.CPFileProject
comment='Modulo Infopublisher e Inforeader
timestamp='20150326105200
type='design
I
}
font=Icpproject.CPFont
font='Arial
font_points=9
I
objects=[
'cp_askfile
'cp_runprogram
'cp_zoombox
]
I
protojust='0
prt=False
rtf=True
saf=True
self='*.def
sta=False
tab=False
tabledbf='tabelle
tableidx='tabelle
tec=False
tec_doc='standard
tmp=False
tmpana='ordi
tmpc=False
tmpf=False
tmpm=False
tooledit='C:\UT\Q.EXE
tpldir='f:\painter2\vfcstpl\
tpldirf='..\vfcstpl\
usr=True
usr_doc='manual
windir='
zom=False
I
*--*
*----*
